Data cleaning - Screening file
…
df <- df %>%
  mutate(across(all_of(binary_vars),
                recode_yesno, .names = "{.col}_CAT"))

# Visualization: RAW vs CLEAN for all binary variables
binary_long <- df %>%
  select(ID,
         all_of(paste0(binary_vars, "_RAW")),
         all_of(paste0(binary_vars))) %>%
  mutate(across(everything(), as.character)) 

df[,c("HLTH_MED", "HLTH_MED_RAW", "HLTH_MED_CAT")]

# A tibble: 399 × 3
   HLTH_MED                                       HLTH_MED_RAW      HLTH_MED_CAT
   <chr>                                          <chr>                    <dbl>
 1 No                                             No                           0
 2 Yes, Loratadina/ Betolmetasona Urticaria       Yes, Loratadina/…            1
 3 No                                             No                           0
 4 No                                             No                           0
 5 Yes,omeprazol y medicamento para pie de atleta Yes,omeprazol y …            1
 6 no                                             no                           0
 7 no                                             no                           0
 8 no                                             no                           0
 9 No                                             No                           0
10 999                                            999                        999
# ℹ 389 more rows

df[,c("HLTH_TTM", "HLTH_TTM_RAW", "HLTH_TTM_CAT")]

# A tibble: 399 × 3
   HLTH_TTM HLTH_TTM_RAW HLTH_TTM_CAT
   <chr>    <chr>               <dbl>
 1 No       No                      0
 2 No       No                      0
 3 No       No                      0
 4 No       No                      0
 5 No       No                      0
 6 no       no                      0
 7 no       no                      0
 8 no       no                      0
 9 No       No                      0
10 999      999                   999
# ℹ 389 more rows

df[,c("HLTH_CPAIN", "HLTH_CPAIN_RAW", "HLTH_CPAIN_CAT")]

# A tibble: 399 × 3
   HLTH_CPAIN              HLTH_CPAIN_RAW          HLTH_CPAIN_CAT
   <chr>                   <chr>                            <dbl>
 1 No                      No                                   0
 2 No                      No                                   0
 3 No                      No                                   0
 4 No                      No                                   0
 5 Yes                     Yes                                  1
 6 No                      No                                   0
 7 Yes                     Yes                                  1
 8 No                      No                                   0
 9 dolor cabeza ~ 2 al mes dolor cabeza ~ 2 al mes            555
10 999                     999                                999
# ℹ 389 more rows

df[,c("HLTH_CDIS", "HLTH_CDIS_RAW", "HLTH_CDIS_CAT")]

# A tibble: 399 × 3
   HLTH_CDIS                                         HLTH_CDIS_RAW HLTH_CDIS_CAT
   <chr>                                             <chr>                 <dbl>
 1 "Tuve colesterol elevado hace dos semanas hice e… "Tuve colest…           555
 2 "No"                                              "No"                      0
 3 "No"                                              "No"                      0
 4 "No"                                              "No"                      0
 5 "Dolor cronico de talon y Dolor de cabeza (migra… "Dolor croni…           555
 6 "no"                                              "no"                      0
 7 "dolor cronico- gastritis- de vez en cuando \nno… "dolor croni…           555
 8 "No diabates por embarazo"                        "No diabates…           555
 9 "Dolor cronico: dolor cabeza 2 al mes"            "444"                   555
10 "999"                                             "999"                   999
# ℹ 389 more rows
…
    D_EMP_FORM_CLEAN = case_when(
      is.na(D_EMP_CLEAN) | D_EMP_CLEAN != 1                               ~ NA_real_,
      D_EMP_TYPE_CLEAN %in% as.character(MISSING_CODES)                   ~ suppressWarnings(as.numeric(D_EMP_TYPE_CLEAN)),
      str_detect(D_EMP_TYPE_CLEAN, "formal(?!.*informal)")                ~ 1,
      str_detect(D_EMP_TYPE_CLEAN, "informal")                            ~ 0,
      str_detect(D_EMP_TYPE_CLEAN,
                 "vend|comerci|limpieza|chocolater|catalogo|ropa|dulces|postres|pintura|facebook") ~ 0,
      TRUE                                                                 ~ 555
    )
  ) 

df[,c("D_EMP_TYPE", "D_EMP_TYPE_CLEAN", "D_EMP_FORM_CLEAN" )]

# A tibble: 399 × 3
   D_EMP_TYPE                                  D_EMP_TYPE_CLEAN D_EMP_FORM_CLEAN
   <chr>                                       <chr>                       <dbl>
 1 Yes,venta de productos                      yes,venta de pr…              555
 2 Yes,comerciante                             yes,comerciante                 0
 3 No, antes viendia comida en escuela         no, antes viend…               NA
 4 Administrativo esparadico local de product… administrativo …              555
 5 Ama de cas                                  ama de cas                    555
 6 Yes,witatechnologia- 1 dia a la semana      yes,witatechnol…              555
 7 informal: venta de ropa de vez en cuando    informal: venta…                1
 8 No                                          no                             NA
 9 Si, vendedora-informal                      si, vendedora-i…                1
10 999                                         999                            NA
# ℹ 389 more rows
…
print(table(df$D_EMP_FORM_CLEAN, useNA = "always"))

   0    1  555 <NA> 
  24  190   50  135 

cat("\nUnclassified employment responses (555):\n")

Unclassified employment responses (555):

df %>%
  filter(D_EMP_CLEAN == 555 | D_EMP_FORM_CLEAN == 555) %>%
  select(ID, D_EMP_TYPE_RAW, D_EMP_CLEAN, D_EMP_FORM_CLEAN) %>%
  print()

# A tibble: 59 × 4
      ID D_EMP_TYPE_RAW                             D_EMP_CLEAN D_EMP_FORM_CLEAN
   <int> <chr>                                            <dbl>            <dbl>
 1     1 Yes,venta de productos                               1              555
 2     4 Administrativo esparadico local de produc…           1              555
 3     5 Ama de cas                                           1              555
 4     6 Yes,witatechnologia- 1 dia a la semana               1              555
 5    13 Yes,vento online FB                                  1              555
 6    30 Yes,asistente de estilista                           1              555
 7    31 Ma de trabajo?                                       1              555
 8    41 Si                                                   1              555
 9    42 Yes,solo fds                                         1              555
10    45 Comerante                                          555               NA
# ℹ 49 more rows
…
cat("SES_SC_Total NAs:", sum(is.na(df$SES_SC_Total)), "\n")

SES_SC_Total NAs: 48 

cat("Participants with missing or flagged SES items:\n")

Participants with missing or flagged SES items:

SES_nas <-print(df[is.na(df$SES_SC_Total),
         c("ID", ses_items, paste0(ses_items, "_RAW"))])

# A tibble: 48 × 13
      ID SES_EDU_SC SES_BTHR_SC SES_CAR_SC SES_INT_SC SES_WRK_SC SES_BEDR_SC
   <int>      <dbl>       <dbl>      <dbl>      <dbl>      <dbl>       <dbl>
 1     8         31          NA         18         31         15          12
 2    10        999         999        999        999        999         999
 3    11         35          NA          0         31         46          23
 4    12         35          47         18         31         61          NA
 5    18         NA          NA         NA         NA         NA          NA
 6    22         31          NA         NA         NA         NA          NA
 7    57         31         666          0         31         15           6
 8    58         43          NA          0         31         31          23
 9    81         NA          47          0          0         31          23
10    85         31          47         18         31         61          NA
# ℹ 38 more rows
# ℹ 6 more variables: SES_EDU_SC_RAW <chr>, SES_BTHR_SC_RAW <chr>,
#   SES_CAR_SC_RAW <chr>, SES_INT_SC_RAW <chr>, SES_WRK_SC_RAW <chr>,
#   SES_BEDR_SC_RAW <chr>

write.csv(SES_nas, file.path(data_path, "01.SES_to_review.csv"), row.names = FALSE)

print(df[is.na(df$SES_SC_Total),
         c("ID", ses_items, paste0(ses_items, "_RAW"))])

# A tibble: 48 × 13
      ID SES_EDU_SC SES_BTHR_SC SES_CAR_SC SES_INT_SC SES_WRK_SC SES_BEDR_SC
   <int>      <dbl>       <dbl>      <dbl>      <dbl>      <dbl>       <dbl>
 1     8         31          NA         18         31         15          12
 2    10        999         999        999        999        999         999
 3    11         35          NA          0         31         46          23
 4    12         35          47         18         31         61          NA
 5    18         NA          NA         NA         NA         NA          NA
 6    22         31          NA         NA         NA         NA          NA
 7    57         31         666          0         31         15           6
 8    58         43          NA          0         31         31          23
 9    81         NA          47          0          0         31          23
10    85         31          47         18         31         61          NA
# ℹ 38 more rows
# ℹ 6 more variables: SES_EDU_SC_RAW <chr>, SES_BTHR_SC_RAW <chr>,
#   SES_CAR_SC_RAW <chr>, SES_INT_SC_RAW <chr>, SES_WRK_SC_RAW <chr>,
#   SES_BEDR_SC_RAW <chr>
…
