Merge Datasets – Water Insecurity & Stress Study
…
cat("Final column count:", ncol(merged_final), "\n")

Final column count: 119 

6. Quality checks

# Missing values in key outcome columns
qc_cols <- c("HLTH_CPAIN","HLTH_CPAIN_CAT", "HLTH_CPAIN_RAW", "HLTH_CDIS_CAT", "HW_TOTAL", "PSS_TOTAL", "W_WS_LOC", "MX3_CONT_INT","MX2_WI_SEASON_TYPE", "MX2_WI_SEASON_INFO", "MX2_WI_SEASON", "MX5_WFREQ_HRS_PER_WEEK")

print(merged_final[, qc_cols], n=5)

# A tibble: 399 × 12
  HLTH_CPAIN HLTH_CPAIN_CAT HLTH_CPAIN_RAW HLTH_CDIS_CAT HW_TOTAL PSS_TOTAL
  <chr>               <dbl> <chr>                  <dbl>    <dbl>     <dbl>
1 No                      0 No                         1        4        24
2 No                      0 No                         0        5        24
3 No                      0 No                         0        1        24
4 No                      0 No                         0        2        21
5 Yes                     1 Yes                        0       12        32
# ℹ 394 more rows
# ℹ 6 more variables: W_WS_LOC <chr>, MX3_CONT_INT <chr>,
#   MX2_WI_SEASON_TYPE <chr>, MX2_WI_SEASON_INFO <chr>, MX2_WI_SEASON <chr>,
#   MX5_WFREQ_HRS_PER_WEEK <chr>
…
