06.1 PSS Models – Perceived Stress as Outcome
…
Multiple testing correction: With ~18 models on the
same sample, the familywise error rate is elevated. Apply
Benjamini–Hochberg correction to the vector of F-test p-values:

   comparison %>%
     filter(!is.na(F_p)) %>%
     mutate(F_p_adj = p.adjust(F_p, method = "BH"))

# A tibble: 24 × 15
   model_id label group     n    R2 adj_R2 delta_adj_R2   AIC   BIC F_stat F_df1
   <chr>    <chr> <chr> <int> <dbl>  <dbl>        <dbl> <dbl> <dbl>  <dbl> <int>
 1 core2    M0b:… Base    345 0.006 -0.006       -0.003 2359. 2382.   0.07     1
 2 hwise_t… M1: … HWISE   339 0.044  0.032        0.036 2307. 2330.  13.4      1
 3 hwise_l… M1: … HWISE   339 0.039  0.027        0.03  2308. 2331.  11.5      1
 4 core2_h… M1b:… HWISE   339 0.047  0.033        0.036 2307. 2334.   7.28     2
 5 core2_h… M1b:… HWISE   339 0.043  0.028        0.032 2309  2336.   6.44     2
 6 core3_h… M1c:… HWISE   339 0.06   0.043        0.046 2305. 2336.   6.36     3
 7 core3_h… M1c:… HWISE   339 0.057  0.039        0.043 2306  2337.   5.98     3
 8 hwise_h… Core… Indi…   345 0.026  0.014        0.017 2352. 2375.   6.99     1
 9 hwise_h… Core… Indi…   345 0.021  0.009        0.013 2353. 2376.   5.34     1
10 hwise_h… Core… Indi…   345 0.035  0.024        0.027 2348. 2371.  10.5      1
# ℹ 14 more rows
# ℹ 4 more variables: F_df2 <int>, F_p <dbl>, note <chr>, F_p_adj <dbl>
…
Exclude participants flagged in PSS_REVIEW_FLAG.

Test interaction terms: HW_TOTAL * SES_SC_Total,
HW_TOTAL * D_AGE.

Effect size: report Cohen’s f² =
R²_change / (1 − R²_augmented) as a scale-independent effect size
alongside β:

   comparison %>%
     filter(!is.na(delta_adj_R2)) %>%
     mutate(cohens_f2 = delta_adj_R2 / (1 - adj_R2))

# A tibble: 24 × 15
   model_id label group     n    R2 adj_R2 delta_adj_R2   AIC   BIC F_stat F_df1
   <chr>    <chr> <chr> <int> <dbl>  <dbl>        <dbl> <dbl> <dbl>  <dbl> <int>
 1 core2    M0b:… Base    345 0.006 -0.006       -0.003 2359. 2382.   0.07     1
 2 hwise_t… M1: … HWISE   339 0.044  0.032        0.036 2307. 2330.  13.4      1
 3 hwise_l… M1: … HWISE   339 0.039  0.027        0.03  2308. 2331.  11.5      1
 4 core2_h… M1b:… HWISE   339 0.047  0.033        0.036 2307. 2334.   7.28     2
 5 core2_h… M1b:… HWISE   339 0.043  0.028        0.032 2309  2336.   6.44     2
 6 core3_h… M1c:… HWISE   339 0.06   0.043        0.046 2305. 2336.   6.36     3
 7 core3_h… M1c:… HWISE   339 0.057  0.039        0.043 2306  2337.   5.98     3
 8 hwise_h… Core… Indi…   345 0.026  0.014        0.017 2352. 2375.   6.99     1
 9 hwise_h… Core… Indi…   345 0.021  0.009        0.013 2353. 2376.   5.34     1
10 hwise_h… Core… Indi…   345 0.035  0.024        0.027 2348. 2371.  10.5      1
# ℹ 14 more rows
# ℹ 4 more variables: F_df2 <int>, F_p <dbl>, note <chr>, cohens_f2 <dbl>
…
