Data merge & cleaning — Screening + HWISE + PSS
…
3.3 Check HWISE item distributions

cat("HWISE item value distributions:\n")

HWISE item value distributions:

hwise_pss %>%
  select(all_of(HWISE_ITEMS)) %>%
  mutate(across(everything(), as.character)) %>%
  pivot_longer(everything(), names_to = "item", values_to = "value") %>%
  count(item, value) %>%
  filter(!is.na(value)) %>%
  print(n = 30)

# A tibble: 47 × 3
   item       value     n
   <chr>      <chr> <int>
 1 HW_ANGRY   0       128
 2 HW_ANGRY   1       157
 3 HW_ANGRY   2        80
 4 HW_ANGRY   3        32
 5 HW_BODY    0       218
 6 HW_BODY    1       105
 7 HW_BODY    2        59
 8 HW_BODY    3        16
 9 HW_CLOTHES 0       159
10 HW_CLOTHES 1       116
11 HW_CLOTHES 2        91
12 HW_CLOTHES 3        31
13 HW_DRINK   0       260
14 HW_DRINK   1       110
15 HW_DRINK   2        24
16 HW_DRINK   3         4
17 HW_FOOD    0       275
18 HW_FOOD    1        79
19 HW_FOOD    2        32
20 HW_FOOD    3        11
21 HW_HANDS   0       318
22 HW_HANDS   1        57
23 HW_HANDS   2        19
24 HW_HANDS   3         4
25 HW_INTERR  0        95
26 HW_INTERR  1       132
27 HW_INTERR  2       121
28 HW_INTERR  3        50
29 HW_NONE    0       209
30 HW_NONE    1       109
# ℹ 17 more rows
…
4.3 Check PSS item distributions

cat("PSS item value distributions:\n")

PSS item value distributions:

hwise_pss %>%
  select(all_of(PSS_ITEMS)) %>%
  mutate(across(everything(), as.character)) %>%
  pivot_longer(everything(), names_to = "item", values_to = "value") %>%
  count(item, value) %>%
  filter(!is.na(value)) %>%
  print(n = 20)

# A tibble: 70 × 3
   item  value     n
   <chr> <chr> <int>
 1 PSS1  0        38
 2 PSS1  1        57
 3 PSS1  2       169
 4 PSS1  3        89
 5 PSS1  4        44
 6 PSS10 0        30
 7 PSS10 1        79
 8 PSS10 2       180
 9 PSS10 3        80
10 PSS10 4        28
11 PSS11 0         9
12 PSS11 1        49
13 PSS11 2       138
14 PSS11 3       109
15 PSS11 4        92
16 PSS12 0         2
17 PSS12 1        29
18 PSS12 2        90
19 PSS12 3       140
20 PSS12 4       136
# ℹ 50 more rows
…
