Data cleaning - Screening file
…
print(table(df$D_EMP_FORM_CLEAN, useNA = "always"))

   0    1  555 <NA> 
  22  188   49  140 

cat("\nUnclassified employment responses (555):\n")

Unclassified employment responses (555):

df %>%
  filter(D_EMP_CLEAN == 555 | D_EMP_FORM_CLEAN == 555) %>%
  select(ID, D_EMP_TYPE_RAW, D_EMP_CLEAN, D_EMP_FORM_CLEAN) %>%
  print()

# A tibble: 57 × 4
      ID D_EMP_TYPE_RAW                             D_EMP_CLEAN D_EMP_FORM_CLEAN
   <int> <chr>                                            <dbl>            <dbl>
 1     1 Yes,venta de productos                               1              555
 2     4 Administrativo esparadico local de produc…           1              555
 3     5 Ama de cas                                           1              555
 4     6 Yes,witatechnologia- 1 dia a la semana               1              555
 5    13 Yes,vento online FB                                  1              555
 6    30 Yes,asistente de estilista                           1              555
 7    31 Ma de trabajo?                                       1              555
 8    41 Si                                                   1              555
 9    42 Yes,solo fds                                         1              555
10    45 Comerante                                          555               NA
# ℹ 47 more rows
…
cat("SES_SC_Total NAs:", sum(is.na(df$SES_SC_Total)), "\n")

SES_SC_Total NAs: 50 

cat("Participants with missing or flagged SES items:\n")

Participants with missing or flagged SES items:

print(df[is.na(df$SES_SC_Total),
         c("ID", ses_items, paste0(ses_items, "_RAW"))])

# A tibble: 50 × 13
      ID SES_EDU_SC SES_BTHR_SC SES_CAR_SC SES_INT_SC SES_WRK_SC SES_BEDR_SC
   <int>      <dbl>       <dbl>      <dbl>      <dbl>      <dbl>       <dbl>
 1     8         31          NA         18         31         15          12
 2    10        999         999        999        999        999         999
 3    11         35          NA          0         31         46          23
 4    12         35          47         18         31         61          NA
 5    18         NA          NA         NA         NA         NA          NA
 6    22         31          NA         NA         NA         NA          NA
 7    57         31         666          0         31         15           6
 8    58         43          NA          0         31         31          23
 9    70         NA          NA         NA         31         NA          NA
10    81         NA          47          0          0         31          23
# ℹ 40 more rows
# ℹ 6 more variables: SES_EDU_SC_RAW <chr>, SES_BTHR_SC_RAW <chr>,
#   SES_CAR_SC_RAW <chr>, SES_INT_SC_RAW <chr>, SES_WRK_SC_RAW <chr>,
#   SES_BEDR_SC_RAW <chr>
…
cat("Missing data summary (analytic variables):\n")

Missing data summary (analytic variables):

print(missing_report, n = 50)

# A tibble: 51 × 6
   variable          n_na n_sentinel n_total pct_na pct_flag
   <chr>            <int>      <int>   <int>  <dbl>    <dbl>
 1 D_LOC              251          1     399   62.9      0.3
 2 D_EMP_FORM_CLEAN   140         49     399   35.1     12.3
 3 D_AGE               53          1     399   13.3      0.3
 4 SES_SC_Total        50          0     399   12.5      0  
 5 SES_CAT_AMAI        50          0     399   12.5      0  
 6 D_LOC_TIME          33          1     399    8.3      0.3
 7 D_LOC_TIME_RAW      33          1     399    8.3      0.3
 8 D_LOC_TIME_CLEAN    33          3     399    8.3      0.8
 9 SES_BTHR_SC         30          2     399    7.5      0.5
10 SES_BTHR_SC_RAW     30          1     399    7.5      0.3
11 D_HH_SIZE           22          1     399    5.5      0.3
12 D_EMP_TYPE          21          1     399    5.3      0.3
13 SES_BTHR_CAT        21          1     399    5.3      0.3
14 D_EMP_TYPE_RAW      21          1     399    5.3      0.3
15 D_EMP_CLEAN         21          9     399    5.3      2.3
16 SES_CAR_SC          19          1     399    4.8      0.3
17 HLTH_SMK_CAT        19          0     399    4.8      0  
18 SES_CAR_SC_RAW      19          1     399    4.8      0.3
19 HLTH_SMK            18          1     399    4.5      0.3
20 SES_CAR_CAT         18          1     399    4.5      0.3
21 SES_BEDR_SC         18          1     399    4.5      0.3
22 HLTH_SMK_RAW        18          1     399    4.5      0.3
23 HLTH_SMK_CLEAN      18         10     399    4.5      2.5
24 SES_BEDR_SC_RAW     18          1     399    4.5      0.3
25 D_CHLD              17          3     399    4.3      0.8
26 SES_EDU_SC          17          2     399    4.3      0.5
27 SES_WRK_CAT         17          1     399    4.3      0.3
28 SES_WRK_SC          17          1     399    4.3      0.3
29 D_CHLD_RAW          17          3     399    4.3      0.8
30 D_CHLD_CLEAN        17          7     399    4.3      1.8
31 SES_EDU_SC_RAW      17          2     399    4.3      0.5
32 SES_WRK_SC_RAW      17          1     399    4.3      0.3
33 HLTH_CDIS           16          1     399    4        0.3
34 SES_INT_CAT         16          1     399    4        0.3
35 SES_INT_SC          16          1     399    4        0.3
36 SES_BEDR_CAT        16          1     399    4        0.3
37 HLTH_CDIS_RAW       16          1     399    4        0.3
38 HLTH_CDIS_CLEAN     16         70     399    4       17.5
39 SES_INT_SC_RAW      16          1     399    4        0.3
40 HLTH_CPAIN          15          1     399    3.8      0.3
41 HLTH_CPAIN_RAW      15          1     399    3.8      0.3
42 HLTH_CPAIN_CLEAN    15         44     399    3.8     11  
43 HLTH_TTM            14          1     399    3.5      0.3
44 HLTH_MED            14          1     399    3.5      0.3
45 HLTH_TTM_RAW        14          1     399    3.5      0.3
46 HLTH_MED_RAW        14          1     399    3.5      0.3
47 HLTH_TTM_CLEAN      14         35     399    3.5      8.8
48 HLTH_MED_CLEAN      14         50     399    3.5     12.5
49 SES_EDU_CAT          9          1     399    2.3      0.3
50 D_YRBR               3          1     399    0.8      0.3
# ℹ 1 more row
…
