HBA2025_cleaning.knit.md
…
Added SES_SC_Total column, maintaining NA where any SES_SC column has NA.

# Count the number of NAs in the SES_SC_Total column
num_na_ses_sc_total <- sum(is.na(d$SES_SC_Total))

# Print the count
cat("Number of NA values in SES_SC_Total:", num_na_ses_sc_total, "\n")

Number of NA values in SES_SC_Total: 36 

print(d[is.na(d$SES_SC_Total),c("ID",ses_sc_columns)], n=20)

# A tibble: 36 × 7
      ID SES_EDU_SC SES_BTHR_SC SES_CAR_SC SES_INT_SC SES_WRK_SC SES_BEDR_SC
   <int>      <dbl>       <dbl>      <dbl>      <dbl>      <dbl>       <dbl>
 1     8         31          NA         18         31         15          12
 2    11         35          NA          0         31         46          23
 3    12         35          47         18         31         61          NA
 4    18         NA          NA         NA         NA         NA          NA
 5    22         31          NA         NA         NA         NA          NA
 6    57         31          NA          0         31         15           6
 7    58         43          NA          0         31         31          23
 8    81         NA          47          0          0         31          23
 9    85         31          47         18         31         61          NA
10    95         NA          24         18          0         61          12
11   101         NA          47          0         31         46          17
12   103         NA          24         18         31         31          17
13   107         NA          47          0         31         31          12
14   108         NA          24         18         31         31          12
15   109         35          NA          0         31         46          23
16   125         43          NA          0         31         31          23
17   127         73          NA          0         31         61          23
18   156         NA           0          0          0         31           6
19   182         31          NA         18         31         15          17
20   194         23          NA          0          0         15           6
# ℹ 16 more rows
…
# Convert numeric-coded columns to factors where applicable
d <- d %>%
  mutate(across(where(~ all(. %in% c("0", "1", "other", NA_character_))), as.factor))  # Ensure consistency

# Convert variables to numeric when appropriate
## Pending: D_YRBR, D_LOC_TIME, D_CHLD, D_HH_SIZE

print(d)

# A tibble: 385 × 25
      ID D_YRBR D_AGE D_LOC_TIME HLTH_SMK HLTH_TTM HLTH_MED HLTH_CPAIN HLTH_CDIS
   <int> <chr>  <int> <chr>      <fct>    <fct>    <chr>    <fct>      <chr>    
 1     1 1987      35 35         0        0        "No"     0          "Tuve co…
 2     2 1990      32 32         1        0        "Lorata… 0          "No"     
 3     3 1992      30 8          0        0        "No"     0          "No"     
 4     4 1982      40 32         0        0        "No"     0          "No"     
 5     5 1976      46 45         0        0        "Yes,om… 1          "Dolor c…
 6     6 1990      32 8          other    other    "no"     0          "no"     
 7     7 1997      25 <NA>       other    other    "no"     1          "dolor c…
 8     8 1985      37 10         0        other    "no"     0          "No diab…
 9     9 1982      40 40         0        0        "No"     other      "No"     
10    10 1979      49 43         0        0        "No"     0          "No"     
# ℹ 375 more rows
# ℹ 16 more variables: D_HH_SIZE <chr>, D_CHLD <chr>, D_EMP_TYPE <chr>,
#   SES_EDU_CAT <chr>, SES_EDU_SC <dbl>, SES_BTHR_CAT <chr>, SES_BTHR_SC <dbl>,
#   SES_CAR_CAT <chr>, SES_CAR_SC <dbl>, SES_INT_CAT <chr>, SES_INT_SC <dbl>,
#   SES_WRK_CAT <chr>, SES_WRK_SC <dbl>, SES_BEDR_CAT <chr>, SES_BEDR_SC <dbl>,
#   SES_SC_Total <dbl>
…
# Print merged dataset dimensions
cat("Merged dataset dimensions:", dim(merged_df), "\n")

Merged dataset dimensions: 400 39 

print(merged_df, n=20)

# A tibble: 400 × 39
   ID    D_YRBR D_LOC_TIME D_AGE D_HH_SIZE D_CHLD HLTH_SMK SES_SC_Total SEASON 
   <chr> <chr>  <chr>      <int> <chr>     <chr>  <fct>           <dbl> <chr>  
 1 1     1987   35            35 4         0      0                 149 Oct-Dec
 2 2     1990   32            32 12        2      1                 196 Oct-Dec
 3 3     1992   8             30 7         2      0                  52 Oct-Dec
 4 4     1982   32            40 4         1      0                 214 Oct-Dec
 5 5     1976   45            46 4         other  0                 117 Oct-Dec
 6 6     1990   8             32 6         1      other             220 Oct-Dec
 7 7     1997   <NA>          25 4         2      other             130 Oct-Dec
 8 8     1985   10            37 4         2      0                  NA Oct-Dec
 9 9     1982   40            40 6         4      0                  71 Oct-Dec
10 10    1979   43            49 3         1      0                 117 Oct-Dec
11 11    1992   21            30 10        2      0                  NA Oct-Dec
12 12    1996   26            26 17        2      0                  NA Oct-Dec
13 13    1998   24            24 6         2      0                 159 Oct-Dec
14 14    2000   22            22 6         0      0                 132 Oct-Dec
15 15    1997   13            25 5         1      1                 113 Oct-Dec
16 16    1990   14            32 5         other  0                 104 Oct-Dec
17 17    1988   34            34 6         3      0                 127 Oct-Dec
18 18    1978   <NA>          44 <NA>      <NA>   <NA>               NA Oct-Dec
19 19    1991   10            31 4         2      0                 110 Oct-Dec
20 20    1992   11            30 10        2      0                 199 Oct-Dec
# ℹ 380 more rows
# ℹ 30 more variables: W_WS_LOC <chr>, HW_WORRY <int>, HW_INTERR <int>,
#   HW_CLOTHES <int>, HW_PLANS <int>, HW_FOOD <int>, HW_HANDS <int>,
#   HW_BODY <int>, HW_DRINK <int>, HW_ANGRY <int>, HW_SLEEP <int>,
#   HW_NONE <int>, HW_SHAME <int>, PSS1 <int>, PSS2 <int>, PSS3 <int>,
#   PSS4 <int>, PSS5 <int>, PSS6 <int>, PSS7 <int>, PSS8 <int>, PSS9 <int>,
#   PSS10 <int>, PSS11 <int>, PSS12 <int>, PSS13 <int>, PSS14 <int>, …
…
