HBA2025_results
…
# Convert numeric-coded columns to numeric where applicable
d <- d %>%
  mutate(across(where(~ all(. %in% c("0", "1", "other", NA_character_))), as.character))  # Ensure consistency

print(d)

# A tibble: 385 × 25
      ID D_YRBR D_AGE D_LOC_TIME HLTH_SMK HLTH_TTM HLTH_MED HLTH_CPAIN HLTH_CDIS
   <int> <chr>  <int> <chr>      <chr>    <chr>    <chr>    <chr>      <chr>    
 1     1 1987      35 35         0        0        "No"     0          "Tuve co…
 2     2 1990      32 32         1        0        "Lorata… 0          "No"     
 3     3 1992      30 8          0        0        "No"     0          "No"     
 4     4 1982      40 32         0        0        "No"     0          "No"     
 5     5 1976      46 45         0        0        "Yes,om… 1          "Dolor c…
 6     6 1990      32 8          other    other    "no"     0          "no"     
 7     7 1997      25 <NA>       other    other    "no"     1          "dolor c…
 8     8 1985      37 10         0        other    "no"     0          "No diab…
 9     9 1982      40 40         0        0        "No"     other      "No"     
10    10 1979      49 43         0        0        "No"     0          "No"     
# ℹ 375 more rows
# ℹ 16 more variables: D_HH_SIZE <chr>, D_CHLD <chr>, D_EMP_TYPE <chr>,
#   SES_EDU_CAT <chr>, SES_EDU_SC <dbl>, SES_BTHR_CAT <chr>, SES_BTHR_SC <dbl>,
#   SES_CAR_CAT <chr>, SES_CAR_SC <dbl>, SES_INT_CAT <chr>, SES_INT_SC <dbl>,
#   SES_WRK_CAT <chr>, SES_WRK_SC <dbl>, SES_BEDR_CAT <chr>, SES_BEDR_SC <dbl>,
#   SES_SC_Total <dbl>
…
# Merge datasets sequentially by the common column
merged_df <- df1 %>%
  full_join(df2, by = common_column) %>%
  full_join(df3, by = common_column)

merged_df <- merged_df %>% select(!HW_INFO, PSS_INFO, PSS_TOTAL, SEASON, W_WS_LOC)

# Print merged dataset dimensions
cat("Merged dataset dimensions:", dim(merged_df), "\n")

Merged dataset dimensions: 400 40 

print(merged_df, n=20)

# A tibble: 400 × 40
   ID    D_YRBR D_AGE D_HH_SIZE D_CHLD HLTH_SMK SES_SC_Total SEASON  W_WS_LOC
   <chr> <chr>  <int> <chr>     <chr>  <chr>           <dbl> <chr>   <chr>   
 1 1     1987      35 4         0      0                 149 Oct-Dec WI      
 2 2     1990      32 12        2      1                 196 Oct-Dec WI      
 3 3     1992      30 7         2      0                  52 Oct-Dec WI      
 4 4     1982      40 4         1      0                 214 Oct-Dec WI      
 5 5     1976      46 4         other  0                 117 Oct-Dec WI      
 6 6     1990      32 6         1      other             220 Oct-Dec WI      
 7 7     1997      25 4         2      other             130 Oct-Dec WI      
 8 8     1985      37 4         2      0                  NA Oct-Dec WI      
 9 9     1982      40 6         4      0                  71 Oct-Dec WI      
10 10    1979      49 3         1      0                 117 Oct-Dec WI      
11 11    1992      30 10        2      0                  NA Oct-Dec WI      
12 12    1996      26 17        2      0                  NA Oct-Dec WI      
13 13    1998      24 6         2      0                 159 Oct-Dec WI      
14 14    2000      22 6         0      0                 132 Oct-Dec WI      
15 15    1997      25 5         1      1                 113 Oct-Dec WI      
16 16    1990      32 5         other  0                 104 Oct-Dec WI      
17 17    1988      34 6         3      0                 127 Oct-Dec WI      
18 18    1978      44 <NA>      <NA>   <NA>               NA Oct-Dec WI      
19 19    1991      31 4         2      0                 110 Oct-Dec WI      
20 20    1992      30 10        2      0                 199 Oct-Dec WI      
# ℹ 380 more rows
# ℹ 31 more variables: HW_TOTAL <lgl>, HW_WORRY <int>, HW_INTERR <int>,
#   HW_CLOTHES <int>, HW_PLANS <int>, HW_FOOD <int>, HW_HANDS <int>,
#   HW_BODY <int>, HW_DRINK <int>, HW_ANGRY <int>, HW_SLEEP <int>,
#   HW_NONE <int>, HW_SHAME <int>, PSS1 <int>, PSS2 <int>, PSS3 <int>,
#   PSS4 <int>, PSS5 <int>, PSS6 <int>, PSS7 <int>, PSS8 <int>, PSS9 <int>,
#   PSS10 <int>, PSS11 <int>, PSS12 <int>, PSS13 <int>, PSS14 <int>, …
…
