HBA plots
…
Number of Fisher Scoring iterations: 5

# Compare AIC values
AIC(full_model, optimized_model)

                df      AIC
full_model      69 324.0633
optimized_model  6 243.6981

# Check significance of forced-in variables
tidy(full_model)

# A tibble: 69 × 5
   term                                     estimate std.error statistic p.value
   <chr>                                       <dbl>     <dbl>     <dbl>   <dbl>
 1 (Intercept)                              -2.35      2.49       -0.946 3.44e-1
 2 HW_TOTAL                                  0.213     0.0468      4.54  5.63e-6
 3 W_WC_WI                                   1.14      0.663       1.72  8.58e-2
 4 PSS_TOTAL                                 0.0619    0.0283      2.19  2.85e-2
 5 HRS_WEEK                                  0.00458   0.00467     0.982 3.26e-1
 6 MX28_WQ_COMP                             -0.808     0.269      -3.00  2.67e-3
 7 SEASON                                    0.426     0.438       0.974 3.30e-1
 8 MX9_DRINK_Wa) agua del suministro publi…  2.76      2.68        1.03  3.02e-1
 9 MX9_DRINK_Wd) Garrafon de marca           1.28      2.51        0.510 6.10e-1
10 MX9_DRINK_WD) Garrafon de marca           0.908     2.31        0.393 6.94e-1
# ℹ 59 more rows
…
Number of Fisher Scoring iterations: 5

# Compare AIC values
AIC(full_model_interactions, optimized_model)

                        df      AIC
full_model_interactions 72 323.6679
optimized_model          6 243.6981

# Check significance of forced-in variables and interactions
tidy(full_model_interactions)

# A tibble: 72 × 5
   term                                     estimate std.error statistic p.value
   <chr>                                       <dbl>     <dbl>     <dbl>   <dbl>
 1 (Intercept)                               -4.37      3.48      -1.25  0.210  
 2 HW_TOTAL                                   0.166     0.0613     2.71  0.00668
 3 W_WC_WI                                    4.21      2.07       2.04  0.0415 
 4 PSS_TOTAL                                  0.0768    0.0470     1.64  0.102  
 5 HRS_WEEK                                   0.0231    0.0125     1.84  0.0655 
 6 MX28_WQ_COMP                              -0.834     0.283     -2.95  0.00322
 7 SEASON                                    -0.472     0.722     -0.653 0.514  
 8 MX9_DRINK_Wa) agua del suministro publi…   2.44      3.03       0.803 0.422  
 9 MX9_DRINK_Wd) Garrafon de marca            0.876     3.00       0.292 0.770  
10 MX9_DRINK_WD) Garrafon de marca            0.308     2.68       0.115 0.909  
# ℹ 62 more rows
…
